JUPITER_FD_WOL,2031-01-19T17:44:21Z,2031-01-19T19:14:21Z,,GENERIC
JUPITER_FD_WOL,2031-01-22T06:27:02Z,2031-01-22T07:57:02Z,,GENERIC
JUPITER_FD_WOL,2031-01-25T06:17:30Z,2031-01-25T07:47:30Z,,GENERIC
JUPITER_FD_WOL,2031-01-28T06:07:55Z,2031-01-28T07:37:55Z,,GENERIC
JUPITER_FD_WOL,2031-01-31T05:58:17Z,2031-01-31T07:28:17Z,,GENERIC
JUPITER_FD_WOL,2031-02-03T05:48:36Z,2031-02-03T07:18:36Z,,GENERIC
JUPITER_FD_WOL,2031-02-06T05:38:52Z,2031-02-06T07:08:52Z,,GENERIC
JUPITER_FD_WOL,2031-02-09T05:29:04Z,2031-02-09T06:59:04Z,,GENERIC
JUPITER_FD_WOL,2031-02-12T05:19:12Z,2031-02-12T06:49:12Z,,GENERIC
JUPITER_FD_WOL,2031-02-15T05:09:16Z,2031-02-15T06:39:16Z,,GENERIC
JUPITER_FD_WOL,2031-02-18T04:59:15Z,2031-02-18T06:29:15Z,,GENERIC
JUPITER_FD_WOL,2031-02-21T04:49:10Z,2031-02-21T06:19:10Z,,GENERIC
JUPITER_FD_WOL,2031-02-24T04:39:00Z,2031-02-24T06:09:00Z,,GENERIC
JUPITER_FD_WOL,2031-02-27T04:28:45Z,2031-02-27T05:58:45Z,,GENERIC
JUPITER_FD_WOL,2031-03-02T04:18:25Z,2031-03-02T05:48:25Z,,GENERIC
JUPITER_FD_WOL,2031-03-05T04:07:58Z,2031-03-05T05:37:58Z,,GENERIC
JUPITER_FD_WOL,2031-03-08T03:57:26Z,2031-03-08T05:27:26Z,,GENERIC
JUPITER_FD_WOL,2031-03-11T03:46:48Z,2031-03-11T05:16:48Z,,GENERIC
JUPITER_FD_WOL,2031-03-14T03:36:04Z,2031-03-14T05:06:04Z,,GENERIC
JUPITER_FD_WOL,2031-03-17T03:25:13Z,2031-03-17T04:55:13Z,,GENERIC
JUPITER_FD_WOL,2031-03-20T03:14:15Z,2031-03-20T04:44:15Z,,GENERIC
JUPITER_FD_WOL,2031-03-23T03:03:10Z,2031-03-23T04:33:10Z,,GENERIC
JUPITER_FD_WOL,2031-03-26T02:51:58Z,2031-03-26T04:21:58Z,,GENERIC
JUPITER_FD_WOL,2031-03-29T02:40:38Z,2031-03-29T04:10:38Z,,GENERIC
JUPITER_FD_WOL,2031-04-01T02:29:10Z,2031-04-01T03:59:10Z,,GENERIC
JUPITER_FD_WOL,2031-04-04T02:17:35Z,2031-04-04T03:47:35Z,,GENERIC
JUPITER_FD_WOL,2031-04-07T02:05:52Z,2031-04-07T03:35:52Z,,GENERIC
JUPITER_FD_WOL,2031-04-10T01:54:01Z,2031-04-10T03:24:01Z,,GENERIC
JUPITER_FD_WOL,2031-04-13T01:42:02Z,2031-04-13T03:12:02Z,,GENERIC
JUPITER_FD_WOL,2031-04-16T01:29:54Z,2031-04-16T02:59:54Z,,GENERIC
JUPITER_FD_WOL,2031-04-19T01:17:39Z,2031-04-19T02:47:39Z,,GENERIC
JUPITER_FD_WOL,2031-04-22T01:05:15Z,2031-04-22T02:35:15Z,,GENERIC
JUPITER_FD_WOL,2031-04-25T00:52:42Z,2031-04-25T02:22:42Z,,GENERIC
JUPITER_FD_WOL,2031-04-28T00:40:02Z,2031-04-28T02:10:02Z,,GENERIC
JUPITER_FD_WOL,2031-05-01T00:27:13Z,2031-05-01T01:57:13Z,,GENERIC
JUPITER_FD_WOL,2031-05-04T00:14:16Z,2031-05-04T01:44:16Z,,GENERIC
JUPITER_FD_WOL,2031-05-07T00:01:12Z,2031-05-07T01:31:12Z,,GENERIC
JUPITER_FD_WOL,2031-05-09T23:48:01Z,2031-05-10T01:18:01Z,,GENERIC
JUPITER_FD_WOL,2031-05-12T23:34:42Z,2031-05-13T01:04:42Z,,GENERIC
JUPITER_FD_WOL,2031-05-15T23:21:17Z,2031-05-16T00:51:17Z,,GENERIC
JUPITER_FD_WOL,2031-05-18T23:07:45Z,2031-05-19T00:37:45Z,,GENERIC
JUPITER_FD_WOL,2031-05-21T22:54:07Z,2031-05-22T00:24:07Z,,GENERIC
JUPITER_FD_WOL,2031-05-24T22:40:23Z,2031-05-25T00:10:23Z,,GENERIC
JUPITER_FD_WOL,2031-05-27T22:26:35Z,2031-05-27T23:56:35Z,,GENERIC
JUPITER_FD_WOL,2031-05-30T22:12:43Z,2031-05-30T23:42:43Z,,GENERIC
JUPITER_FD_WOL,2031-06-02T21:58:47Z,2031-06-02T23:28:47Z,,GENERIC
JUPITER_FD_WOL,2031-06-05T21:44:48Z,2031-06-05T23:14:48Z,,GENERIC
JUPITER_FD_WOL,2031-06-08T21:30:46Z,2031-06-08T23:00:46Z,,GENERIC
JUPITER_FD_WOL,2031-06-11T21:16:43Z,2031-06-11T22:46:43Z,,GENERIC
JUPITER_FD_WOL,2031-06-14T21:02:39Z,2031-06-14T22:32:39Z,,GENERIC
JUPITER_FD_WOL,2031-06-17T20:48:35Z,2031-06-17T22:18:35Z,,GENERIC
JUPITER_FD_WOL,2031-06-20T20:34:30Z,2031-06-20T22:04:30Z,,GENERIC
JUPITER_FD_WOL,2031-06-23T20:20:27Z,2031-06-23T21:50:27Z,,GENERIC
JUPITER_FD_WOL,2031-06-26T20:06:26Z,2031-06-26T21:36:26Z,,GENERIC
JUPITER_FD_WOL,2031-06-29T19:52:26Z,2031-06-29T21:22:26Z,,GENERIC
JUPITER_FD_WOL,2031-07-02T19:38:30Z,2031-07-02T21:08:30Z,,GENERIC
JUPITER_FD_WOL,2031-07-05T19:24:36Z,2031-07-05T20:54:36Z,,GENERIC
JUPITER_FD_WOL,2031-07-08T19:10:46Z,2031-07-08T20:40:46Z,,GENERIC
JUPITER_FD_WOL,2031-07-11T18:56:59Z,2031-07-11T20:26:59Z,,GENERIC
JUPITER_FD_WOL,2031-07-14T18:43:16Z,2031-07-14T20:13:16Z,,GENERIC
JUPITER_FD_WOL,2031-07-17T18:29:35Z,2031-07-17T19:59:35Z,,GENERIC
JUPITER_FD_WOL,2031-07-20T18:15:52Z,2031-07-20T19:45:52Z,,GENERIC
JUPITER_FD_WOL,2031-07-23T18:03:09Z,2031-07-23T19:33:09Z,,GENERIC
JUPITER_FD_WOL,2031-07-26T17:51:06Z,2031-07-26T19:21:06Z,,GENERIC
JUPITER_FD_WOL,2031-07-29T17:39:05Z,2031-07-29T19:09:05Z,,GENERIC
JUPITER_FD_WOL,2031-08-01T17:27:05Z,2031-08-01T18:57:05Z,,GENERIC
JUPITER_FD_WOL,2031-08-04T17:15:09Z,2031-08-04T18:45:09Z,,GENERIC
JUPITER_FD_WOL,2031-08-07T17:03:18Z,2031-08-07T18:33:18Z,,GENERIC
JUPITER_FD_WOL,2031-08-10T16:51:30Z,2031-08-10T18:21:30Z,,GENERIC
JUPITER_FD_WOL,2031-08-13T16:39:48Z,2031-08-13T18:09:48Z,,GENERIC
JUPITER_FD_WOL,2031-08-16T16:28:11Z,2031-08-16T17:58:11Z,,GENERIC
JUPITER_FD_WOL,2031-08-19T16:16:39Z,2031-08-19T17:46:39Z,,GENERIC
JUPITER_FD_WOL,2031-08-22T16:05:13Z,2031-08-22T17:35:13Z,,GENERIC
JUPITER_FD_WOL,2031-08-25T15:53:53Z,2031-08-25T17:23:53Z,,GENERIC
JUPITER_FD_WOL,2031-08-28T15:42:39Z,2031-08-28T17:12:39Z,,GENERIC
JUPITER_FD_WOL,2031-08-31T15:31:30Z,2031-08-31T17:01:30Z,,GENERIC
JUPITER_FD_WOL,2031-09-03T15:20:27Z,2031-09-03T16:50:27Z,,GENERIC
JUPITER_FD_WOL,2031-09-06T15:09:29Z,2031-09-06T16:39:29Z,,GENERIC
JUPITER_FD_WOL,2031-09-09T14:58:38Z,2031-09-09T16:28:38Z,,GENERIC
JUPITER_FD_WOL,2031-09-12T14:47:52Z,2031-09-12T16:17:52Z,,GENERIC
JUPITER_FD_WOL,2031-09-15T14:37:11Z,2031-09-15T16:07:11Z,,GENERIC
JUPITER_FD_WOL,2031-09-18T14:26:36Z,2031-09-18T15:56:36Z,,GENERIC
JUPITER_FD_WOL,2031-09-21T14:16:07Z,2031-09-21T15:46:07Z,,GENERIC
JUPITER_FD_WOL,2031-09-24T14:05:42Z,2031-09-24T15:35:42Z,,GENERIC
JUPITER_FD_WOL,2031-09-27T13:55:23Z,2031-09-27T15:25:23Z,,GENERIC
JUPITER_FD_WOL,2031-09-30T13:45:10Z,2031-09-30T15:15:10Z,,GENERIC
JUPITER_FD_WOL,2031-10-03T13:35:01Z,2031-10-03T15:05:01Z,,GENERIC
JUPITER_FD_WOL,2031-10-06T13:24:56Z,2031-10-06T14:54:56Z,,GENERIC
JUPITER_FD_WOL,2031-10-09T13:14:57Z,2031-10-09T14:44:57Z,,GENERIC
JUPITER_FD_WOL,2031-10-12T13:05:02Z,2031-10-12T14:35:02Z,,GENERIC
JUPITER_FD_WOL,2031-10-15T12:55:12Z,2031-10-15T14:25:12Z,,GENERIC
JUPITER_FD_WOL,2031-10-18T12:45:26Z,2031-10-18T14:15:26Z,,GENERIC
JUPITER_FD_WOL,2031-10-21T12:35:45Z,2031-10-21T14:05:45Z,,GENERIC
JUPITER_FD_WOL,2031-10-24T12:26:07Z,2031-10-24T13:56:07Z,,GENERIC
JUPITER_FD_WOL,2031-10-27T12:16:34Z,2031-10-27T13:46:34Z,,GENERIC
JUPITER_FD_WOL,2031-10-30T12:07:04Z,2031-10-30T13:37:04Z,,GENERIC
JUPITER_FD_WOL,2031-11-02T11:57:38Z,2031-11-02T13:27:38Z,,GENERIC
JUPITER_FD_WOL,2031-11-05T11:48:15Z,2031-11-05T13:18:15Z,,GENERIC
JUPITER_FD_WOL,2031-11-08T11:38:56Z,2031-11-08T13:08:56Z,,GENERIC
JUPITER_FD_WOL,2031-11-11T11:29:41Z,2031-11-11T12:59:41Z,,GENERIC
JUPITER_FD_WOL,2031-11-14T11:20:28Z,2031-11-14T12:50:28Z,,GENERIC
JUPITER_FD_WOL,2031-11-17T11:11:18Z,2031-11-17T12:41:18Z,,GENERIC
JUPITER_FD_WOL,2031-11-20T11:02:11Z,2031-11-20T12:32:11Z,,GENERIC
JUPITER_FD_WOL,2031-11-23T10:53:07Z,2031-11-23T12:23:07Z,,GENERIC
JUPITER_FD_WOL,2031-11-26T10:44:05Z,2031-11-26T12:14:05Z,,GENERIC
JUPITER_FD_WOL,2031-11-29T10:35:06Z,2031-11-29T12:05:06Z,,GENERIC
JUPITER_FD_WOL,2031-12-02T10:26:08Z,2031-12-02T11:56:08Z,,GENERIC
JUPITER_FD_WOL,2031-12-05T10:17:13Z,2031-12-05T11:47:13Z,,GENERIC
JUPITER_FD_WOL,2031-12-08T10:08:20Z,2031-12-08T11:38:20Z,,GENERIC
JUPITER_FD_WOL,2031-12-11T09:59:28Z,2031-12-11T11:29:28Z,,GENERIC
JUPITER_FD_WOL,2031-12-14T09:50:37Z,2031-12-14T11:20:37Z,,GENERIC
JUPITER_FD_WOL,2031-12-17T09:41:48Z,2031-12-17T11:11:48Z,,GENERIC
JUPITER_FD_WOL,2031-12-20T09:33:00Z,2031-12-20T11:03:00Z,,GENERIC
JUPITER_FD_WOL,2031-12-23T09:24:13Z,2031-12-23T10:54:13Z,,GENERIC
JUPITER_FD_WOL,2031-12-26T09:15:27Z,2031-12-26T10:45:27Z,,GENERIC
JUPITER_FD_WOL,2031-12-29T09:06:41Z,2031-12-29T10:36:41Z,,GENERIC
JUPITER_FD_WOL,2032-01-01T08:57:55Z,2032-01-01T10:27:55Z,,GENERIC
JUPITER_FD_WOL,2032-01-04T08:49:10Z,2032-01-04T10:19:10Z,,GENERIC
JUPITER_FD_WOL,2032-01-07T08:40:25Z,2032-01-07T10:10:25Z,,GENERIC
JUPITER_FD_WOL,2032-01-10T08:31:39Z,2032-01-10T10:01:39Z,,GENERIC
JUPITER_FD_WOL,2032-01-13T08:22:52Z,2032-01-13T09:52:52Z,,GENERIC
JUPITER_FD_WOL,2032-01-16T08:14:05Z,2032-01-16T09:44:05Z,,GENERIC
JUPITER_FD_WOL,2032-01-19T08:05:16Z,2032-01-19T09:35:16Z,,GENERIC
JUPITER_FD_WOL,2032-01-22T07:56:26Z,2032-01-22T09:26:26Z,,GENERIC
JUPITER_FD_WOL,2032-01-25T07:47:34Z,2032-01-25T09:17:34Z,,GENERIC
JUPITER_FD_WOL,2032-01-28T07:38:40Z,2032-01-28T09:08:40Z,,GENERIC
JUPITER_FD_WOL,2032-01-31T07:29:42Z,2032-01-31T08:59:42Z,,GENERIC
JUPITER_FD_WOL,2032-02-03T07:20:41Z,2032-02-03T08:50:41Z,,GENERIC
JUPITER_FD_WOL,2032-02-06T07:11:35Z,2032-02-06T08:41:35Z,,GENERIC
JUPITER_FD_WOL,2032-02-09T07:02:22Z,2032-02-09T08:32:22Z,,GENERIC
JUPITER_FD_WOL,2032-02-12T06:52:56Z,2032-02-12T08:22:56Z,,GENERIC
JUPITER_FD_WOL,2032-02-15T06:43:20Z,2032-02-15T08:13:20Z,,GENERIC
JUPITER_FD_WOL,2032-02-18T06:34:45Z,2032-02-18T08:04:45Z,,GENERIC
JUPITER_FD_WOL,2032-02-21T06:26:12Z,2032-02-21T07:56:12Z,,GENERIC
JUPITER_FD_WOL,2032-02-24T06:17:33Z,2032-02-24T07:47:33Z,,GENERIC
JUPITER_FD_WOL,2032-02-27T06:08:49Z,2032-02-27T07:38:49Z,,GENERIC
JUPITER_FD_WOL,2032-03-01T06:00:00Z,2032-03-01T07:30:00Z,,GENERIC
JUPITER_FD_WOL,2032-03-04T05:51:06Z,2032-03-04T07:21:06Z,,GENERIC
JUPITER_FD_WOL,2032-03-07T05:42:06Z,2032-03-07T07:12:06Z,,GENERIC
JUPITER_FD_WOL,2032-03-10T05:33:00Z,2032-03-10T07:03:00Z,,GENERIC
JUPITER_FD_WOL,2032-03-13T05:23:49Z,2032-03-13T06:53:49Z,,GENERIC
JUPITER_FD_WOL,2032-03-16T05:14:31Z,2032-03-16T06:44:31Z,,GENERIC
JUPITER_FD_WOL,2032-03-19T05:05:07Z,2032-03-19T06:35:07Z,,GENERIC
JUPITER_FD_WOL,2032-03-22T04:55:36Z,2032-03-22T06:25:36Z,,GENERIC
JUPITER_FD_WOL,2032-03-25T04:45:57Z,2032-03-25T06:15:57Z,,GENERIC
JUPITER_FD_WOL,2032-03-28T04:36:10Z,2032-03-28T06:06:10Z,,GENERIC
JUPITER_FD_WOL,2032-03-31T04:26:14Z,2032-03-31T05:56:14Z,,GENERIC
JUPITER_FD_WOL,2032-04-03T04:16:07Z,2032-04-03T05:46:07Z,,GENERIC
JUPITER_FD_WOL,2032-04-06T04:05:47Z,2032-04-06T05:35:47Z,,GENERIC
JUPITER_FD_WOL,2032-04-09T03:55:06Z,2032-04-09T05:25:06Z,,GENERIC
JUPITER_FD_WOL,2032-04-12T03:43:56Z,2032-04-12T05:13:56Z,,GENERIC
JUPITER_FD_WOL,2032-04-15T03:34:00Z,2032-04-15T05:04:00Z,,GENERIC
JUPITER_FD_WOL,2032-04-18T03:24:06Z,2032-04-18T04:54:06Z,,GENERIC
JUPITER_FD_WOL,2032-04-21T03:13:59Z,2032-04-21T04:43:59Z,,GENERIC
JUPITER_FD_WOL,2032-04-24T03:03:39Z,2032-04-24T04:33:39Z,,GENERIC
JUPITER_FD_WOL,2032-04-27T02:53:04Z,2032-04-27T04:23:04Z,,GENERIC
JUPITER_FD_WOL,2032-04-30T02:42:14Z,2032-04-30T04:12:14Z,,GENERIC
JUPITER_FD_WOL,2032-05-03T02:31:07Z,2032-05-03T04:01:07Z,,GENERIC
JUPITER_FD_WOL,2032-05-06T02:19:38Z,2032-05-06T03:49:38Z,,GENERIC
JUPITER_FD_WOL,2032-05-09T02:07:35Z,2032-05-09T03:37:35Z,,GENERIC
JUPITER_FD_WOL,2032-05-12T01:55:40Z,2032-05-12T03:25:40Z,,GENERIC
JUPITER_FD_WOL,2032-05-15T01:44:47Z,2032-05-15T03:14:47Z,,GENERIC
JUPITER_FD_WOL,2032-05-18T01:33:38Z,2032-05-18T03:03:38Z,,GENERIC
JUPITER_FD_WOL,2032-05-21T01:22:09Z,2032-05-21T02:52:09Z,,GENERIC
JUPITER_FD_WOL,2032-05-24T01:10:19Z,2032-05-24T02:40:19Z,,GENERIC
JUPITER_FD_WOL,2032-05-27T00:58:07Z,2032-05-27T02:28:07Z,,GENERIC
JUPITER_FD_WOL,2032-05-30T00:45:24Z,2032-05-30T02:15:24Z,,GENERIC
JUPITER_FD_WOL,2032-06-02T00:31:56Z,2032-06-02T02:01:56Z,,GENERIC
JUPITER_FD_WOL,2032-06-05T00:19:53Z,2032-06-05T01:49:53Z,,GENERIC
JUPITER_FD_WOL,2032-06-08T00:07:53Z,2032-06-08T01:37:53Z,,GENERIC
JUPITER_FD_WOL,2032-06-10T23:55:30Z,2032-06-11T01:25:30Z,,GENERIC
JUPITER_FD_WOL,2032-06-13T23:42:38Z,2032-06-14T01:12:38Z,,GENERIC
JUPITER_FD_WOL,2032-06-16T23:28:58Z,2032-06-17T00:58:58Z,,GENERIC
JUPITER_FD_WOL,2032-06-19T23:15:18Z,2032-06-20T00:45:18Z,,GENERIC
JUPITER_FD_WOL,2032-06-22T23:02:49Z,2032-06-23T00:32:49Z,,GENERIC
JUPITER_FD_WOL,2032-06-25T22:50:00Z,2032-06-26T00:20:00Z,,GENERIC
JUPITER_FD_WOL,2032-06-28T22:36:42Z,2032-06-29T00:06:42Z,,GENERIC
JUPITER_FD_WOL,2032-07-01T22:22:27Z,2032-07-01T23:52:27Z,,GENERIC
JUPITER_FD_WOL,2032-07-04T22:08:50Z,2032-07-04T23:38:50Z,,GENERIC
JUPITER_FD_WOL,2032-07-07T21:55:58Z,2032-07-07T23:25:58Z,,GENERIC
JUPITER_FD_WOL,2032-07-10T21:42:44Z,2032-07-10T23:12:44Z,,GENERIC
JUPITER_FD_WOL,2032-07-13T21:28:57Z,2032-07-13T22:58:57Z,,GENERIC
JUPITER_FD_WOL,2032-07-16T21:14:09Z,2032-07-16T22:44:09Z,,GENERIC
JUPITER_FD_WOL,2032-07-19T21:01:04Z,2032-07-19T22:31:04Z,,GENERIC
JUPITER_FD_WOL,2032-07-22T20:48:02Z,2032-07-22T22:18:02Z,,GENERIC
JUPITER_FD_WOL,2032-07-25T20:34:38Z,2032-07-25T22:04:38Z,,GENERIC
JUPITER_FD_WOL,2032-07-28T20:20:43Z,2032-07-28T21:50:43Z,,GENERIC
JUPITER_FD_WOL,2032-07-31T20:05:57Z,2032-07-31T21:35:57Z,,GENERIC
JUPITER_FD_WOL,2032-08-03T19:52:57Z,2032-08-03T21:22:57Z,,GENERIC
JUPITER_FD_WOL,2032-08-06T19:40:07Z,2032-08-06T21:10:07Z,,GENERIC
JUPITER_FD_WOL,2032-08-09T19:27:04Z,2032-08-09T20:57:04Z,,GENERIC
JUPITER_FD_WOL,2032-08-12T19:13:43Z,2032-08-12T20:43:43Z,,GENERIC
JUPITER_FD_WOL,2032-08-15T18:59:48Z,2032-08-15T20:29:48Z,,GENERIC
JUPITER_FD_WOL,2032-08-18T18:45:47Z,2032-08-18T20:15:47Z,,GENERIC
JUPITER_FD_WOL,2032-08-21T18:33:15Z,2032-08-21T20:03:15Z,,GENERIC
JUPITER_FD_WOL,2032-08-24T18:20:53Z,2032-08-24T19:50:53Z,,GENERIC
JUPITER_FD_WOL,2032-08-27T18:08:31Z,2032-08-27T19:38:31Z,,GENERIC
JUPITER_FD_WOL,2032-08-30T17:56:05Z,2032-08-30T19:26:05Z,,GENERIC
JUPITER_FD_WOL,2032-09-02T17:43:32Z,2032-09-02T19:13:32Z,,GENERIC
JUPITER_FD_WOL,2032-09-05T17:30:40Z,2032-09-05T19:00:40Z,,GENERIC
JUPITER_FD_WOL,2032-09-08T17:17:16Z,2032-09-08T18:47:16Z,,GENERIC
JUPITER_FD_WOL,2032-09-11T17:05:19Z,2032-09-11T18:35:19Z,,GENERIC
JUPITER_FD_WOL,2032-09-14T16:53:49Z,2032-09-14T18:23:49Z,,GENERIC
JUPITER_FD_WOL,2032-09-17T16:42:21Z,2032-09-17T18:12:21Z,,GENERIC
JUPITER_FD_WOL,2032-09-20T16:30:47Z,2032-09-20T18:00:47Z,,GENERIC
JUPITER_FD_WOL,2032-09-23T16:18:45Z,2032-09-23T17:48:45Z,,GENERIC
JUPITER_FD_WOL,2032-09-26T16:06:27Z,2032-09-26T17:36:27Z,,GENERIC
JUPITER_FD_WOL,2032-09-29T15:55:35Z,2032-09-29T17:25:35Z,,GENERIC
JUPITER_FD_WOL,2032-10-02T15:44:53Z,2032-10-02T17:14:53Z,,GENERIC
JUPITER_FD_WOL,2032-10-05T15:34:08Z,2032-10-05T17:04:08Z,,GENERIC
JUPITER_FD_WOL,2032-10-08T15:23:09Z,2032-10-08T16:53:09Z,,GENERIC
JUPITER_FD_WOL,2032-10-11T15:11:21Z,2032-10-11T16:41:21Z,,GENERIC
JUPITER_FD_WOL,2032-10-14T15:00:40Z,2032-10-14T16:30:40Z,,GENERIC
JUPITER_FD_WOL,2032-10-17T14:50:39Z,2032-10-17T16:20:39Z,,GENERIC
JUPITER_FD_WOL,2032-10-20T14:40:39Z,2032-10-20T16:10:39Z,,GENERIC
JUPITER_FD_WOL,2032-10-23T14:30:29Z,2032-10-23T16:00:29Z,,GENERIC
JUPITER_FD_WOL,2032-10-26T14:19:51Z,2032-10-26T15:49:51Z,,GENERIC
JUPITER_FD_WOL,2032-10-29T14:08:54Z,2032-10-29T15:38:54Z,,GENERIC
JUPITER_FD_WOL,2032-11-01T13:59:21Z,2032-11-01T15:29:21Z,,GENERIC
JUPITER_FD_WOL,2032-11-04T13:49:59Z,2032-11-04T15:19:59Z,,GENERIC
JUPITER_FD_WOL,2032-11-07T13:40:31Z,2032-11-07T15:10:31Z,,GENERIC
JUPITER_FD_WOL,2032-11-10T13:30:44Z,2032-11-10T15:00:44Z,,GENERIC
JUPITER_FD_WOL,2032-11-13T13:20:14Z,2032-11-13T14:50:14Z,,GENERIC
JUPITER_FD_WOL,2032-11-16T13:10:38Z,2032-11-16T14:40:38Z,,GENERIC
JUPITER_FD_WOL,2032-11-19T13:01:46Z,2032-11-19T14:31:46Z,,GENERIC
JUPITER_FD_WOL,2032-11-22T12:52:53Z,2032-11-22T14:22:53Z,,GENERIC
JUPITER_FD_WOL,2032-11-25T12:43:45Z,2032-11-25T14:13:45Z,,GENERIC
JUPITER_FD_WOL,2032-11-28T12:34:03Z,2032-11-28T14:04:03Z,,GENERIC
JUPITER_FD_WOL,2032-12-01T12:24:13Z,2032-12-01T13:54:13Z,,GENERIC
JUPITER_FD_WOL,2032-12-04T12:15:32Z,2032-12-04T13:45:32Z,,GENERIC
JUPITER_FD_WOL,2032-12-07T12:07:05Z,2032-12-07T13:37:05Z,,GENERIC
JUPITER_FD_WOL,2032-12-10T11:58:24Z,2032-12-10T13:28:24Z,,GENERIC
JUPITER_FD_WOL,2032-12-13T11:48:53Z,2032-12-13T13:18:53Z,,GENERIC
JUPITER_FD_WOL,2032-12-16T11:39:44Z,2032-12-16T13:09:44Z,,GENERIC
JUPITER_FD_WOL,2032-12-19T11:31:26Z,2032-12-19T13:01:26Z,,GENERIC
JUPITER_FD_WOL,2032-12-22T11:23:11Z,2032-12-22T12:53:11Z,,GENERIC
JUPITER_FD_WOL,2032-12-25T11:14:34Z,2032-12-25T12:44:34Z,,GENERIC
JUPITER_FD_WOL,2032-12-28T11:05:07Z,2032-12-28T12:35:07Z,,GENERIC
JUPITER_FD_WOL,2032-12-31T10:56:35Z,2032-12-31T12:26:35Z,,GENERIC
JUPITER_FD_WOL,2033-01-03T10:48:31Z,2033-01-03T12:18:31Z,,GENERIC
JUPITER_FD_WOL,2033-01-06T10:40:23Z,2033-01-06T12:10:23Z,,GENERIC
JUPITER_FD_WOL,2033-01-09T10:31:40Z,2033-01-09T12:01:40Z,,GENERIC
JUPITER_FD_WOL,2033-01-12T10:22:29Z,2033-01-12T11:52:29Z,,GENERIC
JUPITER_FD_WOL,2033-01-15T10:14:19Z,2033-01-15T11:44:19Z,,GENERIC
JUPITER_FD_WOL,2033-01-18T10:06:23Z,2033-01-18T11:36:23Z,,GENERIC
JUPITER_FD_WOL,2033-01-21T09:58:15Z,2033-01-21T11:28:15Z,,GENERIC
JUPITER_FD_WOL,2033-01-24T09:49:16Z,2033-01-24T11:19:16Z,,GENERIC
JUPITER_FD_WOL,2033-01-27T09:40:31Z,2033-01-27T11:10:31Z,,GENERIC
JUPITER_FD_WOL,2033-01-30T09:32:32Z,2033-01-30T11:02:32Z,,GENERIC
JUPITER_FD_WOL,2033-02-02T09:24:38Z,2033-02-02T10:54:38Z,,GENERIC
JUPITER_FD_WOL,2033-02-05T09:16:22Z,2033-02-05T10:46:22Z,,GENERIC
JUPITER_FD_WOL,2033-02-08T09:07:11Z,2033-02-08T10:37:11Z,,GENERIC
JUPITER_FD_WOL,2033-02-11T08:58:48Z,2033-02-11T10:28:48Z,,GENERIC
JUPITER_FD_WOL,2033-02-14T08:50:52Z,2033-02-14T10:20:52Z,,GENERIC
JUPITER_FD_WOL,2033-02-17T08:42:53Z,2033-02-17T10:12:53Z,,GENERIC
JUPITER_FD_WOL,2033-02-20T08:34:17Z,2033-02-20T10:04:17Z,,GENERIC
JUPITER_FD_WOL,2033-02-23T08:25:08Z,2033-02-23T09:55:08Z,,GENERIC
JUPITER_FD_WOL,2033-02-26T08:16:54Z,2033-02-26T09:46:54Z,,GENERIC
JUPITER_FD_WOL,2033-03-01T08:08:55Z,2033-03-01T09:38:55Z,,GENERIC
JUPITER_FD_WOL,2033-03-04T08:00:49Z,2033-03-04T09:30:49Z,,GENERIC
JUPITER_FD_WOL,2033-03-07T07:52:19Z,2033-03-07T09:22:19Z,,GENERIC
JUPITER_FD_WOL,2033-03-10T07:43:02Z,2033-03-10T09:13:02Z,,GENERIC
JUPITER_FD_WOL,2033-03-13T07:34:08Z,2033-03-13T09:04:08Z,,GENERIC
JUPITER_FD_WOL,2033-03-16T07:25:52Z,2033-03-16T08:55:52Z,,GENERIC
JUPITER_FD_WOL,2033-03-19T07:17:40Z,2033-03-19T08:47:40Z,,GENERIC
JUPITER_FD_WOL,2033-03-22T07:09:21Z,2033-03-22T08:39:21Z,,GENERIC
JUPITER_FD_WOL,2033-03-25T07:00:47Z,2033-03-25T08:30:47Z,,GENERIC
JUPITER_FD_WOL,2033-03-28T06:51:50Z,2033-03-28T08:21:50Z,,GENERIC
JUPITER_FD_WOL,2033-03-31T06:42:16Z,2033-03-31T08:12:16Z,,GENERIC
JUPITER_FD_WOL,2033-04-03T06:32:53Z,2033-04-03T08:02:53Z,,GENERIC
JUPITER_FD_WOL,2033-04-06T06:24:12Z,2033-04-06T07:54:12Z,,GENERIC
JUPITER_FD_WOL,2033-04-09T06:15:38Z,2033-04-09T07:45:38Z,,GENERIC
JUPITER_FD_WOL,2033-04-12T06:06:58Z,2033-04-12T07:36:58Z,,GENERIC
JUPITER_FD_WOL,2033-04-15T05:58:04Z,2033-04-15T07:28:04Z,,GENERIC
JUPITER_FD_WOL,2033-04-18T05:48:46Z,2033-04-18T07:18:46Z,,GENERIC
JUPITER_FD_WOL,2033-04-21T05:38:48Z,2033-04-21T07:08:48Z,,GENERIC
JUPITER_FD_WOL,2033-04-24T05:28:46Z,2033-04-24T06:58:46Z,,GENERIC
JUPITER_FD_WOL,2033-04-27T05:19:31Z,2033-04-27T06:49:31Z,,GENERIC
JUPITER_FD_WOL,2033-04-30T05:10:27Z,2033-04-30T06:40:27Z,,GENERIC
JUPITER_FD_WOL,2033-05-03T05:01:16Z,2033-05-03T06:31:16Z,,GENERIC
JUPITER_FD_WOL,2033-05-06T04:51:51Z,2033-05-06T06:21:51Z,,GENERIC
JUPITER_FD_WOL,2033-05-09T04:42:03Z,2033-05-09T06:12:03Z,,GENERIC
JUPITER_FD_WOL,2033-05-12T04:31:34Z,2033-05-12T06:01:34Z,,GENERIC
JUPITER_FD_WOL,2033-05-15T04:20:44Z,2033-05-15T05:50:44Z,,GENERIC
JUPITER_FD_WOL,2033-05-18T04:10:41Z,2033-05-18T05:40:41Z,,GENERIC
JUPITER_FD_WOL,2033-05-21T04:00:58Z,2033-05-21T05:30:58Z,,GENERIC
JUPITER_FD_WOL,2033-05-24T03:51:10Z,2033-05-24T05:21:10Z,,GENERIC
JUPITER_FD_WOL,2033-05-27T03:41:01Z,2033-05-27T05:11:01Z,,GENERIC
JUPITER_FD_WOL,2033-05-30T03:30:12Z,2033-05-30T05:00:12Z,,GENERIC
JUPITER_FD_WOL,2033-06-02T03:18:34Z,2033-06-02T04:48:34Z,,GENERIC
JUPITER_FD_WOL,2033-06-05T03:07:25Z,2033-06-05T04:37:25Z,,GENERIC
JUPITER_FD_WOL,2033-06-08T02:56:48Z,2033-06-08T04:26:48Z,,GENERIC
JUPITER_FD_WOL,2033-06-11T02:46:17Z,2033-06-11T04:16:17Z,,GENERIC
JUPITER_FD_WOL,2033-06-14T02:35:31Z,2033-06-14T04:05:31Z,,GENERIC
JUPITER_FD_WOL,2033-06-17T02:23:59Z,2033-06-17T03:53:59Z,,GENERIC
JUPITER_FD_WOL,2033-06-20T02:11:26Z,2033-06-20T03:41:26Z,,GENERIC
JUPITER_FD_WOL,2033-06-23T01:59:45Z,2033-06-23T03:29:45Z,,GENERIC
JUPITER_FD_WOL,2033-06-26T01:48:25Z,2033-06-26T03:18:25Z,,GENERIC
JUPITER_FD_WOL,2033-06-29T01:37:03Z,2033-06-29T03:07:03Z,,GENERIC
JUPITER_FD_WOL,2033-07-02T01:25:25Z,2033-07-02T02:55:25Z,,GENERIC
JUPITER_FD_WOL,2033-07-05T01:12:41Z,2033-07-05T02:42:41Z,,GENERIC
JUPITER_FD_WOL,2033-07-08T00:59:31Z,2033-07-08T02:29:31Z,,GENERIC
JUPITER_FD_WOL,2033-07-11T00:47:12Z,2033-07-11T02:17:12Z,,GENERIC
JUPITER_FD_WOL,2033-07-14T00:35:05Z,2033-07-14T02:05:05Z,,GENERIC
JUPITER_FD_WOL,2033-07-17T00:22:54Z,2033-07-17T01:52:54Z,,GENERIC
JUPITER_FD_WOL,2033-07-20T00:10:23Z,2033-07-20T01:40:23Z,,GENERIC
JUPITER_FD_WOL,2033-07-22T23:56:21Z,2033-07-23T01:26:21Z,,GENERIC
JUPITER_FD_WOL,2033-07-25T23:42:54Z,2033-07-26T01:12:54Z,,GENERIC
JUPITER_FD_WOL,2033-07-28T23:30:01Z,2033-07-29T01:00:01Z,,GENERIC
JUPITER_FD_WOL,2033-07-31T23:17:14Z,2033-08-01T00:47:14Z,,GENERIC
JUPITER_FD_WOL,2033-08-03T23:04:23Z,2033-08-04T00:34:23Z,,GENERIC
JUPITER_FD_WOL,2033-08-06T22:50:59Z,2033-08-07T00:20:59Z,,GENERIC
JUPITER_FD_WOL,2033-08-09T22:36:15Z,2033-08-10T00:06:15Z,,GENERIC
JUPITER_FD_WOL,2033-08-12T22:22:39Z,2033-08-12T23:52:39Z,,GENERIC
JUPITER_FD_WOL,2033-08-15T22:09:24Z,2033-08-15T23:39:24Z,,GENERIC
JUPITER_FD_WOL,2033-08-18T21:56:12Z,2033-08-18T23:26:12Z,,GENERIC
JUPITER_FD_WOL,2033-08-21T21:42:59Z,2033-08-21T23:12:59Z,,GENERIC
JUPITER_FD_WOL,2033-08-24T21:29:35Z,2033-08-24T22:59:35Z,,GENERIC
JUPITER_FD_WOL,2033-08-27T21:15:34Z,2033-08-27T22:45:34Z,,GENERIC
JUPITER_FD_WOL,2033-08-30T21:00:39Z,2033-08-30T22:30:39Z,,GENERIC
JUPITER_FD_WOL,2033-09-02T20:47:01Z,2033-09-02T22:17:01Z,,GENERIC
JUPITER_FD_WOL,2033-09-05T20:33:47Z,2033-09-05T22:03:47Z,,GENERIC
JUPITER_FD_WOL,2033-09-08T20:20:41Z,2033-09-08T21:50:41Z,,GENERIC
JUPITER_FD_WOL,2033-09-11T20:07:37Z,2033-09-11T21:37:37Z,,GENERIC
JUPITER_FD_WOL,2033-09-14T19:54:26Z,2033-09-14T21:24:26Z,,GENERIC
JUPITER_FD_WOL,2033-09-17T19:40:41Z,2033-09-17T21:10:41Z,,GENERIC
JUPITER_FD_WOL,2033-09-20T19:26:15Z,2033-09-20T20:56:15Z,,GENERIC
JUPITER_FD_WOL,2033-09-23T19:13:10Z,2033-09-23T20:43:10Z,,GENERIC
JUPITER_FD_WOL,2033-09-26T19:00:30Z,2033-09-26T20:30:30Z,,GENERIC
JUPITER_FD_WOL,2033-09-29T18:48:02Z,2033-09-29T20:18:02Z,,GENERIC
JUPITER_FD_WOL,2033-10-02T18:35:37Z,2033-10-02T20:05:37Z,,GENERIC
JUPITER_FD_WOL,2033-10-05T18:23:10Z,2033-10-05T19:53:10Z,,GENERIC
JUPITER_FD_WOL,2033-10-08T18:10:09Z,2033-10-08T19:40:09Z,,GENERIC
JUPITER_FD_WOL,2033-10-11T17:56:41Z,2033-10-11T19:26:41Z,,GENERIC
JUPITER_FD_WOL,2033-10-14T17:44:31Z,2033-10-14T19:14:31Z,,GENERIC
JUPITER_FD_WOL,2033-10-17T17:32:47Z,2033-10-17T19:02:47Z,,GENERIC
JUPITER_FD_WOL,2033-10-20T17:21:14Z,2033-10-20T18:51:14Z,,GENERIC
JUPITER_FD_WOL,2033-10-23T17:09:46Z,2033-10-23T18:39:46Z,,GENERIC
JUPITER_FD_WOL,2033-10-26T16:58:16Z,2033-10-26T18:28:16Z,,GENERIC
JUPITER_FD_WOL,2033-10-29T16:46:15Z,2033-10-29T18:16:15Z,,GENERIC
JUPITER_FD_WOL,2033-11-01T16:33:53Z,2033-11-01T18:03:53Z,,GENERIC
JUPITER_FD_WOL,2033-11-04T16:22:45Z,2033-11-04T17:52:45Z,,GENERIC
JUPITER_FD_WOL,2033-11-07T16:11:58Z,2033-11-07T17:41:58Z,,GENERIC
JUPITER_FD_WOL,2033-11-10T16:01:22Z,2033-11-10T17:31:22Z,,GENERIC
JUPITER_FD_WOL,2033-11-13T15:50:52Z,2033-11-13T17:20:52Z,,GENERIC
JUPITER_FD_WOL,2033-11-16T15:40:27Z,2033-11-16T17:10:27Z,,GENERIC
JUPITER_FD_WOL,2033-11-19T15:30:03Z,2033-11-19T17:00:03Z,,GENERIC
JUPITER_FD_WOL,2033-11-22T15:19:35Z,2033-11-22T16:49:35Z,,GENERIC
JUPITER_FD_WOL,2033-11-25T15:08:47Z,2033-11-25T16:38:47Z,,GENERIC
JUPITER_FD_WOL,2033-11-28T14:57:35Z,2033-11-28T16:27:35Z,,GENERIC
JUPITER_FD_WOL,2033-12-01T14:47:32Z,2033-12-01T16:17:32Z,,GENERIC
JUPITER_FD_WOL,2033-12-04T14:37:57Z,2033-12-04T16:07:57Z,,GENERIC
JUPITER_FD_WOL,2033-12-07T14:28:32Z,2033-12-07T15:58:32Z,,GENERIC
JUPITER_FD_WOL,2033-12-10T14:19:03Z,2033-12-10T15:49:03Z,,GENERIC
JUPITER_FD_WOL,2033-12-13T14:08:45Z,2033-12-13T15:38:45Z,,GENERIC
JUPITER_FD_WOL,2033-12-16T13:58:40Z,2033-12-16T15:28:40Z,,GENERIC
JUPITER_FD_WOL,2033-12-19T13:49:25Z,2033-12-19T15:19:25Z,,GENERIC
JUPITER_FD_WOL,2033-12-22T13:40:27Z,2033-12-22T15:10:27Z,,GENERIC
JUPITER_FD_WOL,2033-12-25T13:31:34Z,2033-12-25T15:01:34Z,,GENERIC
JUPITER_FD_WOL,2033-12-28T13:22:23Z,2033-12-28T14:52:23Z,,GENERIC
JUPITER_FD_WOL,2033-12-31T13:12:20Z,2033-12-31T14:42:20Z,,GENERIC
JUPITER_FD_WOL,2034-01-03T13:03:11Z,2034-01-03T14:33:11Z,,GENERIC
JUPITER_FD_WOL,2034-01-06T12:54:30Z,2034-01-06T14:24:30Z,,GENERIC
JUPITER_FD_WOL,2034-01-09T12:46:00Z,2034-01-09T14:16:00Z,,GENERIC
JUPITER_FD_WOL,2034-01-12T12:37:27Z,2034-01-12T14:07:27Z,,GENERIC
JUPITER_FD_WOL,2034-01-15T12:28:10Z,2034-01-15T13:58:10Z,,GENERIC
JUPITER_FD_WOL,2034-01-18T12:19:02Z,2034-01-18T13:49:02Z,,GENERIC
JUPITER_FD_WOL,2034-01-21T12:10:47Z,2034-01-21T13:40:47Z,,GENERIC
JUPITER_FD_WOL,2034-01-24T12:02:30Z,2034-01-24T13:32:30Z,,GENERIC
JUPITER_FD_WOL,2034-01-27T11:53:17Z,2034-01-27T13:23:17Z,,GENERIC
JUPITER_FD_WOL,2034-01-30T11:44:33Z,2034-01-30T13:14:33Z,,GENERIC
JUPITER_FD_WOL,2034-02-02T11:36:29Z,2034-02-02T13:06:29Z,,GENERIC
JUPITER_FD_WOL,2034-02-05T11:28:17Z,2034-02-05T12:58:17Z,,GENERIC
JUPITER_FD_WOL,2034-02-08T11:19:05Z,2034-02-08T12:49:05Z,,GENERIC
JUPITER_FD_WOL,2034-02-11T11:10:39Z,2034-02-11T12:40:39Z,,GENERIC
JUPITER_FD_WOL,2034-02-14T11:02:43Z,2034-02-14T12:32:43Z,,GENERIC
JUPITER_FD_WOL,2034-02-17T10:54:35Z,2034-02-17T12:24:35Z,,GENERIC
JUPITER_FD_WOL,2034-02-20T10:45:35Z,2034-02-20T12:15:35Z,,GENERIC
JUPITER_FD_WOL,2034-02-23T10:36:44Z,2034-02-23T12:06:44Z,,GENERIC
JUPITER_FD_WOL,2034-02-26T10:28:24Z,2034-02-26T11:58:24Z,,GENERIC
JUPITER_FD_WOL,2034-03-01T10:20:26Z,2034-03-01T11:50:26Z,,GENERIC
JUPITER_FD_WOL,2034-03-04T10:12:40Z,2034-03-04T11:42:40Z,,GENERIC
JUPITER_FD_WOL,2034-03-07T10:04:29Z,2034-03-07T11:34:29Z,,GENERIC
JUPITER_FD_WOL,2034-03-10T09:55:29Z,2034-03-10T11:25:29Z,,GENERIC
JUPITER_FD_WOL,2034-03-13T09:46:45Z,2034-03-13T11:16:45Z,,GENERIC
JUPITER_FD_WOL,2034-03-16T09:38:29Z,2034-03-16T11:08:29Z,,GENERIC
JUPITER_FD_WOL,2034-03-19T09:30:34Z,2034-03-19T11:00:34Z,,GENERIC
JUPITER_FD_WOL,2034-03-22T09:22:48Z,2034-03-22T10:52:48Z,,GENERIC
JUPITER_FD_WOL,2034-03-25T09:14:27Z,2034-03-25T10:44:27Z,,GENERIC
JUPITER_FD_WOL,2034-03-28T09:05:25Z,2034-03-28T10:35:25Z,,GENERIC
JUPITER_FD_WOL,2034-03-31T08:56:41Z,2034-03-31T10:26:41Z,,GENERIC
JUPITER_FD_WOL,2034-04-03T08:48:23Z,2034-04-03T10:18:23Z,,GENERIC
JUPITER_FD_WOL,2034-04-06T08:40:26Z,2034-04-06T10:10:26Z,,GENERIC
JUPITER_FD_WOL,2034-04-09T08:32:34Z,2034-04-09T10:02:34Z,,GENERIC
JUPITER_FD_WOL,2034-04-12T08:23:56Z,2034-04-12T09:53:56Z,,GENERIC
JUPITER_FD_WOL,2034-04-15T08:14:46Z,2034-04-15T09:44:46Z,,GENERIC
JUPITER_FD_WOL,2034-04-18T08:05:57Z,2034-04-18T09:35:57Z,,GENERIC
JUPITER_FD_WOL,2034-04-21T07:57:32Z,2034-04-21T09:27:32Z,,GENERIC
JUPITER_FD_WOL,2034-04-24T07:49:27Z,2034-04-24T09:19:27Z,,GENERIC
JUPITER_FD_WOL,2034-04-27T07:41:22Z,2034-04-27T09:11:22Z,,GENERIC
JUPITER_FD_WOL,2034-04-30T07:32:22Z,2034-04-30T09:02:22Z,,GENERIC
JUPITER_FD_WOL,2034-05-03T07:23:01Z,2034-05-03T08:53:01Z,,GENERIC
JUPITER_FD_WOL,2034-05-06T07:14:07Z,2034-05-06T08:44:07Z,,GENERIC
JUPITER_FD_WOL,2034-05-09T07:05:50Z,2034-05-09T08:35:50Z,,GENERIC
JUPITER_FD_WOL,2034-05-12T06:57:23Z,2034-05-12T08:27:23Z,,GENERIC
JUPITER_FD_WOL,2034-05-15T06:47:49Z,2034-05-15T08:17:49Z,,GENERIC
JUPITER_FD_WOL,2034-05-18T06:38:27Z,2034-05-18T08:08:27Z,,GENERIC
JUPITER_FD_WOL,2034-05-21T06:29:39Z,2034-05-21T07:59:39Z,,GENERIC
JUPITER_FD_WOL,2034-05-24T06:21:19Z,2034-05-24T07:51:19Z,,GENERIC
JUPITER_FD_WOL,2034-05-27T06:11:42Z,2034-05-27T07:41:42Z,,GENERIC
JUPITER_FD_WOL,2034-05-30T06:01:52Z,2034-05-30T07:31:52Z,,GENERIC
JUPITER_FD_WOL,2034-06-02T05:52:29Z,2034-06-02T07:22:29Z,,GENERIC
JUPITER_FD_WOL,2034-06-05T05:43:47Z,2034-06-05T07:13:47Z,,GENERIC
JUPITER_FD_WOL,2034-06-08T05:34:17Z,2034-06-08T07:04:17Z,,GENERIC
JUPITER_FD_WOL,2034-06-11T05:24:00Z,2034-06-11T06:54:00Z,,GENERIC
JUPITER_FD_WOL,2034-06-14T05:14:20Z,2034-06-14T06:44:20Z,,GENERIC
JUPITER_FD_WOL,2034-06-17T05:05:20Z,2034-06-17T06:35:20Z,,GENERIC
JUPITER_FD_WOL,2034-06-20T04:55:11Z,2034-06-20T06:25:11Z,,GENERIC
JUPITER_FD_WOL,2034-06-23T04:44:33Z,2034-06-23T06:14:33Z,,GENERIC
JUPITER_FD_WOL,2034-06-26T04:34:32Z,2034-06-26T06:04:32Z,,GENERIC
JUPITER_FD_WOL,2034-06-29T04:25:05Z,2034-06-29T05:55:05Z,,GENERIC
JUPITER_FD_WOL,2034-07-02T04:14:39Z,2034-07-02T05:44:39Z,,GENERIC
JUPITER_FD_WOL,2034-07-05T04:03:26Z,2034-07-05T05:33:26Z,,GENERIC
JUPITER_FD_WOL,2034-07-08T03:52:57Z,2034-07-08T05:22:57Z,,GENERIC
JUPITER_FD_WOL,2034-07-11T03:43:04Z,2034-07-11T05:13:04Z,,GENERIC
JUPITER_FD_WOL,2034-07-14T03:32:05Z,2034-07-14T05:02:05Z,,GENERIC
JUPITER_FD_WOL,2034-07-17T03:20:22Z,2034-07-17T04:50:22Z,,GENERIC
JUPITER_FD_WOL,2034-07-20T03:09:28Z,2034-07-20T04:39:28Z,,GENERIC
JUPITER_FD_WOL,2034-07-23T02:59:06Z,2034-07-23T04:29:06Z,,GENERIC
JUPITER_FD_WOL,2034-07-26T02:47:16Z,2034-07-26T04:17:16Z,,GENERIC
JUPITER_FD_WOL,2034-07-29T02:35:07Z,2034-07-29T04:05:07Z,,GENERIC
JUPITER_FD_WOL,2034-08-01T02:23:50Z,2034-08-01T03:53:50Z,,GENERIC
JUPITER_FD_WOL,2034-08-04T02:12:53Z,2034-08-04T03:42:53Z,,GENERIC
JUPITER_FD_WOL,2034-08-07T02:00:13Z,2034-08-07T03:30:13Z,,GENERIC
JUPITER_FD_WOL,2034-08-10T01:47:37Z,2034-08-10T03:17:37Z,,GENERIC
JUPITER_FD_WOL,2034-08-13T01:35:57Z,2034-08-13T03:05:57Z,,GENERIC
JUPITER_FD_WOL,2034-08-16T01:24:18Z,2034-08-16T02:54:18Z,,GENERIC
JUPITER_FD_WOL,2034-08-19T01:10:52Z,2034-08-19T02:40:52Z,,GENERIC
JUPITER_FD_WOL,2034-08-22T00:57:53Z,2034-08-22T02:27:53Z,,GENERIC
JUPITER_FD_WOL,2034-08-25T00:45:51Z,2034-08-25T02:15:51Z,,GENERIC
JUPITER_FD_WOL,2034-08-28T00:33:25Z,2034-08-28T02:03:25Z,,GENERIC
JUPITER_FD_WOL,2034-08-31T00:19:23Z,2034-08-31T01:49:23Z,,GENERIC
JUPITER_FD_WOL,2034-09-03T00:06:07Z,2034-09-03T01:36:07Z,,GENERIC
JUPITER_FD_WOL,2034-09-05T23:53:45Z,2034-09-06T01:23:45Z,,GENERIC
JUPITER_FD_WOL,2034-09-08T23:40:31Z,2034-09-09T01:10:31Z,,GENERIC
JUPITER_FD_WOL,2034-09-11T23:26:07Z,2034-09-12T00:56:07Z,,GENERIC
JUPITER_FD_WOL,2034-09-14T23:12:52Z,2034-09-15T00:42:52Z,,GENERIC
JUPITER_FD_WOL,2034-09-17T23:00:15Z,2034-09-18T00:30:15Z,,GENERIC
JUPITER_FD_WOL,2034-09-20T22:45:51Z,2034-09-21T00:15:51Z,,GENERIC
JUPITER_FD_WOL,2034-09-23T22:31:39Z,2034-09-24T00:01:39Z,,GENERIC
JUPITER_FD_WOL,2034-09-26T22:18:41Z,2034-09-26T23:48:41Z,,GENERIC
JUPITER_FD_WOL,2034-09-29T22:05:23Z,2034-09-29T23:35:23Z,,GENERIC
JUPITER_FD_WOL,2034-10-02T21:50:35Z,2034-10-02T23:20:35Z,,GENERIC
JUPITER_FD_WOL,2034-10-05T21:37:08Z,2034-10-05T23:07:08Z,,GENERIC
JUPITER_FD_WOL,2034-10-08T21:24:19Z,2034-10-08T22:54:19Z,,GENERIC
JUPITER_FD_WOL,2034-10-11T21:09:44Z,2034-10-11T22:39:44Z,,GENERIC
JUPITER_FD_WOL,2034-10-14T20:55:51Z,2034-10-14T22:25:51Z,,GENERIC
JUPITER_FD_WOL,2034-10-17T20:43:13Z,2034-10-17T22:13:13Z,,GENERIC
JUPITER_FD_WOL,2034-10-20T20:29:26Z,2034-10-20T21:59:26Z,,GENERIC
JUPITER_FD_WOL,2034-10-23T20:15:15Z,2034-10-23T21:45:15Z,,GENERIC
JUPITER_FD_WOL,2034-10-26T20:02:36Z,2034-10-26T21:32:36Z,,GENERIC
JUPITER_FD_WOL,2034-10-29T19:49:50Z,2034-10-29T21:19:50Z,,GENERIC
JUPITER_FD_WOL,2034-11-01T19:35:42Z,2034-11-01T21:05:42Z,,GENERIC
JUPITER_FD_WOL,2034-11-04T19:22:55Z,2034-11-04T20:52:55Z,,GENERIC
JUPITER_FD_WOL,2034-11-07T19:10:55Z,2034-11-07T20:40:55Z,,GENERIC
JUPITER_FD_WOL,2034-11-10T18:57:23Z,2034-11-10T20:27:23Z,,GENERIC
JUPITER_FD_WOL,2034-11-13T18:44:28Z,2034-11-13T20:14:28Z,,GENERIC
JUPITER_FD_WOL,2034-11-16T18:32:53Z,2034-11-16T20:02:53Z,,GENERIC
JUPITER_FD_WOL,2034-11-19T18:20:23Z,2034-11-19T19:50:23Z,,GENERIC
JUPITER_FD_WOL,2034-11-22T18:07:33Z,2034-11-22T19:37:33Z,,GENERIC
JUPITER_FD_WOL,2034-11-25T17:56:16Z,2034-11-25T19:26:16Z,,GENERIC
JUPITER_FD_WOL,2034-11-28T17:44:32Z,2034-11-28T19:14:32Z,,GENERIC
JUPITER_FD_WOL,2034-12-01T17:31:57Z,2034-12-01T19:01:57Z,,GENERIC
JUPITER_FD_WOL,2034-12-04T17:20:56Z,2034-12-04T18:50:56Z,,GENERIC
JUPITER_FD_WOL,2034-12-07T17:09:58Z,2034-12-07T18:39:58Z,,GENERIC
JUPITER_FD_WOL,2034-12-10T16:57:47Z,2034-12-10T18:27:47Z,,GENERIC
JUPITER_FD_WOL,2034-12-13T16:46:57Z,2034-12-13T18:16:57Z,,GENERIC
JUPITER_FD_WOL,2034-12-16T16:36:38Z,2034-12-16T18:06:38Z,,GENERIC
JUPITER_FD_WOL,2034-12-19T16:24:59Z,2034-12-19T17:54:59Z,,GENERIC
JUPITER_FD_WOL,2034-12-22T16:14:48Z,2034-12-22T17:44:48Z,,GENERIC
JUPITER_FD_WOL,2034-12-25T16:04:05Z,2034-12-25T17:34:05Z,,GENERIC
JUPITER_FD_WOL,2034-12-28T15:53:23Z,2034-12-28T17:23:23Z,,GENERIC
JUPITER_FD_WOL,2034-12-31T15:43:40Z,2034-12-31T17:13:40Z,,GENERIC
JUPITER_FD_WOL,2035-01-03T15:32:43Z,2035-01-03T17:02:43Z,,GENERIC
JUPITER_FD_WOL,2035-01-06T15:23:23Z,2035-01-06T16:53:23Z,,GENERIC
JUPITER_FD_WOL,2035-01-09T15:12:55Z,2035-01-09T16:42:55Z,,GENERIC
JUPITER_FD_WOL,2035-01-12T15:03:14Z,2035-01-12T16:33:14Z,,GENERIC
JUPITER_FD_WOL,2035-01-15T14:53:44Z,2035-01-15T16:23:44Z,,GENERIC
JUPITER_FD_WOL,2035-01-18T14:43:33Z,2035-01-18T16:13:33Z,,GENERIC
JUPITER_FD_WOL,2035-01-21T14:34:44Z,2035-01-21T16:04:44Z,,GENERIC
JUPITER_FD_WOL,2035-01-24T14:24:36Z,2035-01-24T15:54:36Z,,GENERIC
JUPITER_FD_WOL,2035-01-27T14:15:45Z,2035-01-27T15:45:45Z,,GENERIC
JUPITER_FD_WOL,2035-01-30T14:06:19Z,2035-01-30T15:36:19Z,,GENERIC
JUPITER_FD_WOL,2035-02-02T13:56:56Z,2035-02-02T15:26:56Z,,GENERIC
JUPITER_FD_WOL,2035-02-05T13:48:21Z,2035-02-05T15:18:21Z,,GENERIC
JUPITER_FD_WOL,2035-02-08T13:38:38Z,2035-02-08T15:08:38Z,,GENERIC
JUPITER_FD_WOL,2035-02-11T13:30:21Z,2035-02-11T15:00:21Z,,GENERIC
JUPITER_FD_WOL,2035-02-14T13:20:59Z,2035-02-14T14:50:59Z,,GENERIC
JUPITER_FD_WOL,2035-02-17T13:12:20Z,2035-02-17T14:42:20Z,,GENERIC
JUPITER_FD_WOL,2035-02-20T13:03:46Z,2035-02-20T14:33:46Z,,GENERIC
JUPITER_FD_WOL,2035-02-23T12:54:33Z,2035-02-23T14:24:33Z,,GENERIC
JUPITER_FD_WOL,2035-02-26T12:46:34Z,2035-02-26T14:16:34Z,,GENERIC
JUPITER_FD_WOL,2035-03-01T12:37:19Z,2035-03-01T14:07:19Z,,GENERIC
JUPITER_FD_WOL,2035-03-04T12:29:13Z,2035-03-04T13:59:13Z,,GENERIC
JUPITER_FD_WOL,2035-03-07T12:20:33Z,2035-03-07T13:50:33Z,,GENERIC
JUPITER_FD_WOL,2035-03-10T12:11:53Z,2035-03-10T13:41:53Z,,GENERIC
JUPITER_FD_WOL,2035-03-13T12:03:56Z,2035-03-13T13:33:56Z,,GENERIC
JUPITER_FD_WOL,2035-03-16T11:54:53Z,2035-03-16T13:24:53Z,,GENERIC
JUPITER_FD_WOL,2035-03-19T11:47:09Z,2035-03-19T13:17:09Z,,GENERIC
JUPITER_FD_WOL,2035-03-22T11:38:21Z,2035-03-22T13:08:21Z,,GENERIC
JUPITER_FD_WOL,2035-03-25T11:30:11Z,2035-03-25T13:00:11Z,,GENERIC
JUPITER_FD_WOL,2035-03-28T11:22:05Z,2035-03-28T12:52:05Z,,GENERIC
JUPITER_FD_WOL,2035-03-31T11:13:19Z,2035-03-31T12:43:19Z,,GENERIC
JUPITER_FD_WOL,2035-04-03T11:05:42Z,2035-04-03T12:35:42Z,,GENERIC
JUPITER_FD_WOL,2035-04-06T10:56:49Z,2035-04-06T12:26:49Z,,GENERIC
JUPITER_FD_WOL,2035-04-09T10:49:02Z,2035-04-09T12:19:02Z,,GENERIC
JUPITER_FD_WOL,2035-04-12T10:40:40Z,2035-04-12T12:10:40Z,,GENERIC
JUPITER_FD_WOL,2035-04-15T10:32:15Z,2035-04-15T12:02:15Z,,GENERIC
JUPITER_FD_WOL,2035-04-18T10:24:30Z,2035-04-18T11:54:30Z,,GENERIC
JUPITER_FD_WOL,2035-04-21T10:15:38Z,2035-04-21T11:45:38Z,,GENERIC
JUPITER_FD_WOL,2035-04-24T10:08:03Z,2035-04-24T11:38:03Z,,GENERIC
JUPITER_FD_WOL,2035-04-27T09:59:22Z,2035-04-27T11:29:22Z,,GENERIC
JUPITER_FD_WOL,2035-04-30T09:51:17Z,2035-04-30T11:21:17Z,,GENERIC
JUPITER_FD_WOL,2035-05-03T09:43:14Z,2035-05-03T11:13:14Z,,GENERIC
JUPITER_FD_WOL,2035-05-06T09:34:29Z,2035-05-06T11:04:29Z,,GENERIC
JUPITER_FD_WOL,2035-05-09T09:26:52Z,2035-05-09T10:56:52Z,,GENERIC
JUPITER_FD_WOL,2035-05-12T09:17:55Z,2035-05-12T10:47:55Z,,GENERIC
JUPITER_FD_WOL,2035-05-15T09:10:04Z,2035-05-15T10:40:04Z,,GENERIC
JUPITER_FD_WOL,2035-05-18T09:01:34Z,2035-05-18T10:31:34Z,,GENERIC
JUPITER_FD_WOL,2035-05-21T08:53:00Z,2035-05-21T10:23:00Z,,GENERIC
JUPITER_FD_WOL,2035-05-24T08:45:06Z,2035-05-24T10:15:06Z,,GENERIC
JUPITER_FD_WOL,2035-05-27T08:36:00Z,2035-05-27T10:06:00Z,,GENERIC
JUPITER_FD_WOL,2035-05-30T08:28:12Z,2035-05-30T09:58:12Z,,GENERIC
JUPITER_FD_WOL,2035-06-02T08:19:13Z,2035-06-02T09:49:13Z,,GENERIC
JUPITER_FD_WOL,2035-06-05T08:10:50Z,2035-06-05T09:40:50Z,,GENERIC
JUPITER_FD_WOL,2035-06-08T08:02:27Z,2035-06-08T09:32:27Z,,GENERIC
JUPITER_FD_WOL,2035-06-11T07:53:17Z,2035-06-11T09:23:17Z,,GENERIC
JUPITER_FD_WOL,2035-06-14T07:45:17Z,2035-06-14T09:15:17Z,,GENERIC
JUPITER_FD_WOL,2035-06-17T07:35:52Z,2035-06-17T09:05:52Z,,GENERIC
JUPITER_FD_WOL,2035-06-20T07:27:33Z,2035-06-20T08:57:33Z,,GENERIC
JUPITER_FD_WOL,2035-06-23T07:18:31Z,2035-06-23T08:48:31Z,,GENERIC
JUPITER_FD_WOL,2035-06-26T07:09:23Z,2035-06-26T08:39:23Z,,GENERIC
JUPITER_FD_WOL,2035-06-29T07:00:55Z,2035-06-29T08:30:55Z,,GENERIC
JUPITER_FD_WOL,2035-07-02T06:51:08Z,2035-07-02T08:21:08Z,,GENERIC
JUPITER_FD_WOL,2035-07-05T06:42:42Z,2035-07-05T08:12:42Z,,GENERIC
JUPITER_FD_WOL,2035-07-08T06:32:58Z,2035-07-08T08:02:58Z,,GENERIC
JUPITER_FD_WOL,2035-07-11T06:23:50Z,2035-07-11T07:53:50Z,,GENERIC
JUPITER_FD_WOL,2035-07-14T06:14:39Z,2035-07-14T07:44:39Z,,GENERIC
JUPITER_FD_WOL,2035-07-17T06:04:38Z,2035-07-17T07:34:38Z,,GENERIC
JUPITER_FD_WOL,2035-07-20T05:55:48Z,2035-07-20T07:25:48Z,,GENERIC
JUPITER_FD_WOL,2035-07-23T05:45:23Z,2035-07-23T07:15:23Z,,GENERIC
JUPITER_FD_WOL,2035-07-26T05:36:09Z,2035-07-26T07:06:09Z,,GENERIC
JUPITER_FD_WOL,2035-07-29T05:26:05Z,2035-07-29T06:56:05Z,,GENERIC
JUPITER_FD_WOL,2035-08-01T05:15:53Z,2035-08-01T06:45:53Z,,GENERIC
JUPITER_FD_WOL,2035-08-04T05:06:21Z,2035-08-04T06:36:21Z,,GENERIC
JUPITER_FD_WOL,2035-08-07T04:55:21Z,2035-08-07T06:25:21Z,,GENERIC
JUPITER_FD_WOL,2035-08-10T04:45:48Z,2035-08-10T06:15:48Z,,GENERIC
JUPITER_FD_WOL,2035-08-13T04:34:45Z,2035-08-13T06:04:45Z,,GENERIC
JUPITER_FD_WOL,2035-08-16T04:24:24Z,2035-08-16T05:54:24Z,,GENERIC
JUPITER_FD_WOL,2035-08-19T04:13:51Z,2035-08-19T05:43:51Z,,GENERIC
JUPITER_FD_WOL,2035-08-22T04:02:26Z,2035-08-22T05:32:26Z,,GENERIC
JUPITER_FD_WOL,2035-08-25T03:52:15Z,2035-08-25T05:22:15Z,,GENERIC
JUPITER_FD_WOL,2035-08-28T03:40:16Z,2035-08-28T05:10:16Z,,GENERIC
JUPITER_FD_WOL,2035-08-31T03:29:39Z,2035-08-31T04:59:39Z,,GENERIC
JUPITER_FD_WOL,2035-09-03T03:17:56Z,2035-09-03T04:47:56Z,,GENERIC
JUPITER_FD_WOL,2035-09-06T03:06:12Z,2035-09-06T04:36:12Z,,GENERIC
JUPITER_FD_WOL,2035-09-09T02:55:03Z,2035-09-09T04:25:03Z,,GENERIC
JUPITER_FD_WOL,2035-09-12T02:42:20Z,2035-09-12T04:12:20Z,,GENERIC
JUPITER_FD_WOL,2035-09-15T02:31:13Z,2035-09-15T04:01:13Z,,GENERIC
JUPITER_FD_WOL,2035-09-18T02:18:19Z,2035-09-18T03:48:19Z,,GENERIC
JUPITER_FD_WOL,2035-09-21T02:06:21Z,2035-09-21T03:36:21Z,,GENERIC
JUPITER_FD_WOL,2035-09-24T01:54:00Z,2035-09-24T03:24:00Z,,GENERIC
JUPITER_FD_WOL,2035-09-27T01:40:50Z,2035-09-27T03:10:50Z,,GENERIC
