[
  {
    "file": "internal/common/meta_kernels/Generic_meta_kernel_crema_5_1_150lb_23_1.cfg",
    "commit": "f2bd73d0a37ea7c1b486148291efd93a11ba6d52",
    "commit_date": "Mon Jan 16 10:10:14 2023"
  },
  {
    "file": "internal/geopipeline/output/Crema_5_0/Mission_Phases.csv",
    "commit": "f2bd73d0a37ea7c1b486148291efd93a11ba6d52",
    "commit_date": "Mon Jan 16 10:10:14 2023"
  },
  {
    "file": "internal/geopipeline/output/Crema_5_0/Traj_data_2031-01-19_2034-12-19_REF_BODY_JUPITER_ORBITING_BODY_JUICE.csv.zip",
    "commit": "f2bd73d0a37ea7c1b486148291efd93a11ba6d52",
    "commit_date": "Mon Jan 16 10:10:14 2023"
  },
  {
    "file": "internal/geopipeline/output/Crema_5_0/mission_timeline_event_file_5_0.csv",
    "commit": "f2bd73d0a37ea7c1b486148291efd93a11ba6d52",
    "commit_date": "Mon Jan 16 10:10:14 2023"
  },
  {
    "file": "internal/geopipeline/output/Crema_5_0/mission_timeline_event_file_ganymede_phase_5_0.csv",
    "commit": "f2bd73d0a37ea7c1b486148291efd93a11ba6d52",
    "commit_date": "Mon Jan 16 10:10:14 2023"
  },
  {
    "file": "internal/geopipeline/output/Crema_5_0/segmentation/segmentation_proposal_Jupiter_Phase_all_crema_5_0_FB_FD_WOL_GENERIC.csv",
    "commit": "f2bd73d0a37ea7c1b486148291efd93a11ba6d52",
    "commit_date": "Mon Jan 16 10:10:14 2023"
  },
  {
    "file": "internal/geopipeline/output/Crema_5_0/segmentation/segmentation_proposal_Jupiter_Phase_all_crema_5_0_FD_OPNAV_GENERIC.csv",
    "commit": "f2bd73d0a37ea7c1b486148291efd93a11ba6d52",
    "commit_date": "Mon Jan 16 10:10:14 2023"
  },
  {
    "file": "internal/geopipeline/output/Crema_5_0/segmentation/segmentation_proposal_Jupiter_Phase_all_crema_5_0_FD_TCM_GENERIC.csv",
    "commit": "f2bd73d0a37ea7c1b486148291efd93a11ba6d52",
    "commit_date": "Mon Jan 16 10:10:14 2023"
  },
  {
    "file": "internal/geopipeline/output/Crema_5_0/segmentation/segmentation_proposal_Jupiter_Phase_all_crema_5_0_FD_WOL_GENERIC.csv",
    "commit": "f2bd73d0a37ea7c1b486148291efd93a11ba6d52",
    "commit_date": "Mon Jan 16 10:10:14 2023"
  },
  {
    "file": "internal/geopipeline/output/Crema_5_0/segmentation/segmentation_proposal_Jupiter_Phase_all_crema_5_0_MALARGUE.csv",
    "commit": "f2bd73d0a37ea7c1b486148291efd93a11ba6d52",
    "commit_date": "Mon Jan 16 10:10:14 2023"
  },
  {
    "file": "internal/geopipeline/output/Crema_5_0/segmentation/segmentation_proposal_Jupiter_Phase_all_crema_5_0_WG1.csv",
    "commit": "f2bd73d0a37ea7c1b486148291efd93a11ba6d52",
    "commit_date": "Mon Jan 16 10:10:14 2023"
  },
  {
    "file": "internal/geopipeline/output/Crema_5_0/segmentation/segmentation_proposal_Jupiter_Phase_all_crema_5_0_WG2.csv",
    "commit": "f2bd73d0a37ea7c1b486148291efd93a11ba6d52",
    "commit_date": "Mon Jan 16 10:10:14 2023"
  },
  {
    "file": "internal/geopipeline/output/Crema_5_0/segmentation/segmentation_proposal_Jupiter_Phase_all_crema_5_0_WG3.csv",
    "commit": "f2bd73d0a37ea7c1b486148291efd93a11ba6d52",
    "commit_date": "Mon Jan 16 10:10:14 2023"
  },
  {
    "file": "internal/geopipeline/output/Crema_5_0/segmentation/segmentation_proposal_Jupiter_Phase_all_crema_5_0_WG4.csv",
    "commit": "f2bd73d0a37ea7c1b486148291efd93a11ba6d52",
    "commit_date": "Mon Jan 16 10:10:14 2023"
  },
  {
    "file": "internal/geopipeline/output/Crema_5_0/segmentation/segmentation_proposal_Jupiter_Phase_all_crema_5_0_WGX.csv",
    "commit": "f2bd73d0a37ea7c1b486148291efd93a11ba6d52",
    "commit_date": "Mon Jan 16 10:10:14 2023"
  },
  {
    "file": "internal/geopipeline/output/Crema_5_0b23_1/Mission_Phases.csv",
    "commit": "f2bd73d0a37ea7c1b486148291efd93a11ba6d52",
    "commit_date": "Mon Jan 16 10:10:14 2023"
  },
  {
    "file": "internal/geopipeline/output/Crema_5_0b23_1/Traj_data_2031-01-19_2034-12-19_REF_BODY_JUPITER_ORBITING_BODY_JUICE.csv.zip",
    "commit": "f2bd73d0a37ea7c1b486148291efd93a11ba6d52",
    "commit_date": "Mon Jan 16 10:10:14 2023"
  },
  {
    "file": "internal/geopipeline/output/Crema_5_0b23_1/Traj_data_2034-12-19_2035-09-28_REF_BODY_GANYMEDE_ORBITING_BODY_JUICE.csv.zip",
    "commit": "f2bd73d0a37ea7c1b486148291efd93a11ba6d52",
    "commit_date": "Mon Jan 16 10:10:14 2023"
  },
  {
    "file": "internal/geopipeline/output/Crema_5_0b23_1/mission_timeline_event_file_5_0b23_1.csv",
    "commit": "f2bd73d0a37ea7c1b486148291efd93a11ba6d52",
    "commit_date": "Mon Jan 16 10:10:14 2023"
  },
  {
    "file": "internal/geopipeline/output/Crema_5_0b23_1/mission_timeline_event_file_ganymede_phase_5_0b23_1.csv",
    "commit": "f2bd73d0a37ea7c1b486148291efd93a11ba6d52",
    "commit_date": "Mon Jan 16 10:10:14 2023"
  },
  {
    "file": "internal/geopipeline/output/Crema_5_0b23_1/segmentation/segmentation_proposal_Jupiter_Phase_all_crema_5_0b23_1_FB_FD_WOL_GENERIC.csv",
    "commit": "f2bd73d0a37ea7c1b486148291efd93a11ba6d52",
    "commit_date": "Mon Jan 16 10:10:14 2023"
  },
  {
    "file": "internal/geopipeline/output/Crema_5_0b23_1/segmentation/segmentation_proposal_Jupiter_Phase_all_crema_5_0b23_1_FD_OPNAV_GENERIC.csv",
    "commit": "f2bd73d0a37ea7c1b486148291efd93a11ba6d52",
    "commit_date": "Mon Jan 16 10:10:14 2023"
  },
  {
    "file": "internal/geopipeline/output/Crema_5_0b23_1/segmentation/segmentation_proposal_Jupiter_Phase_all_crema_5_0b23_1_FD_TCM_GENERIC.csv",
    "commit": "f2bd73d0a37ea7c1b486148291efd93a11ba6d52",
    "commit_date": "Mon Jan 16 10:10:14 2023"
  },
  {
    "file": "internal/geopipeline/output/Crema_5_0b23_1/segmentation/segmentation_proposal_Jupiter_Phase_all_crema_5_0b23_1_FD_WOL_GENERIC.csv",
    "commit": "f2bd73d0a37ea7c1b486148291efd93a11ba6d52",
    "commit_date": "Mon Jan 16 10:10:14 2023"
  },
  {
    "file": "internal/geopipeline/output/Crema_5_0b23_1/segmentation/segmentation_proposal_Jupiter_Phase_all_crema_5_0b23_1_MALARGUE.csv",
    "commit": "f2bd73d0a37ea7c1b486148291efd93a11ba6d52",
    "commit_date": "Mon Jan 16 10:10:14 2023"
  },
  {
    "file": "internal/geopipeline/output/Crema_5_0b23_1/segmentation/segmentation_proposal_Jupiter_Phase_all_crema_5_0b23_1_WG1.csv",
    "commit": "f2bd73d0a37ea7c1b486148291efd93a11ba6d52",
    "commit_date": "Mon Jan 16 10:10:14 2023"
  },
  {
    "file": "internal/geopipeline/output/Crema_5_0b23_1/segmentation/segmentation_proposal_Jupiter_Phase_all_crema_5_0b23_1_WG2.csv",
    "commit": "f2bd73d0a37ea7c1b486148291efd93a11ba6d52",
    "commit_date": "Mon Jan 16 10:10:14 2023"
  },
  {
    "file": "internal/geopipeline/output/Crema_5_0b23_1/segmentation/segmentation_proposal_Jupiter_Phase_all_crema_5_0b23_1_WG3.csv",
    "commit": "f2bd73d0a37ea7c1b486148291efd93a11ba6d52",
    "commit_date": "Mon Jan 16 10:10:14 2023"
  },
  {
    "file": "internal/geopipeline/output/Crema_5_0b23_1/segmentation/segmentation_proposal_Jupiter_Phase_all_crema_5_0b23_1_WG4.csv",
    "commit": "f2bd73d0a37ea7c1b486148291efd93a11ba6d52",
    "commit_date": "Mon Jan 16 10:10:14 2023"
  },
  {
    "file": "internal/geopipeline/output/Crema_5_0b23_1/segmentation/segmentation_proposal_Jupiter_Phase_all_crema_5_0b23_1_WGX.csv",
    "commit": "f2bd73d0a37ea7c1b486148291efd93a11ba6d52",
    "commit_date": "Mon Jan 16 10:10:14 2023"
  },
  {
    "file": "internal/geopipeline/output/Crema_5_1_150lb_23_1/Mission_Phases.csv",
    "commit": "f2bd73d0a37ea7c1b486148291efd93a11ba6d52",
    "commit_date": "Mon Jan 16 10:10:14 2023"
  },
  {
    "file": "internal/geopipeline/output/Crema_5_1_150lb_23_1/Traj_data_2031-01-19_2034-12-19_REF_BODY_JUPITER_ORBITING_BODY_JUICE.csv.zip",
    "commit": "f2bd73d0a37ea7c1b486148291efd93a11ba6d52",
    "commit_date": "Mon Jan 16 10:10:14 2023"
  },
  {
    "file": "internal/geopipeline/output/Crema_5_1_150lb_23_1/Traj_data_2034-12-19_2035-09-28_REF_BODY_GANYMEDE_ORBITING_BODY_JUICE.csv.zip",
    "commit": "f2bd73d0a37ea7c1b486148291efd93a11ba6d52",
    "commit_date": "Mon Jan 16 10:10:14 2023"
  },
  {
    "file": "internal/geopipeline/output/Crema_5_1_150lb_23_1/mission_timeline_event_file_5_1_150lb_23_1.csv",
    "commit": "f2bd73d0a37ea7c1b486148291efd93a11ba6d52",
    "commit_date": "Mon Jan 16 10:10:14 2023"
  },
  {
    "file": "internal/geopipeline/output/Crema_5_1_150lb_23_1/mission_timeline_event_file_ganymede_phase_5_1_150lb_23_1.csv",
    "commit": "f2bd73d0a37ea7c1b486148291efd93a11ba6d52",
    "commit_date": "Mon Jan 16 10:10:14 2023"
  },
  {
    "file": "internal/geopipeline/output/Crema_5_1_150lb_23_1/segmentation/segmentation_Platform_Power_thermal.csv",
    "commit": "f2bd73d0a37ea7c1b486148291efd93a11ba6d52",
    "commit_date": "Mon Jan 16 10:10:14 2023"
  },
  {
    "file": "internal/geopipeline/output/crema_3_0/Mission_Phases.csv",
    "commit": "f2bd73d0a37ea7c1b486148291efd93a11ba6d52",
    "commit_date": "Mon Jan 16 10:10:14 2023"
  },
  {
    "file": "internal/geopipeline/output/crema_3_0/Traj_data_2032-08-24_2033-06-03_REF_BODY_GANYMEDE_ORBITING_BODY_JUICE.csv.zip",
    "commit": "f2bd73d0a37ea7c1b486148291efd93a11ba6d52",
    "commit_date": "Mon Jan 16 10:10:14 2023"
  },
  {
    "file": "internal/geopipeline/output/crema_3_0/mission_timeline_event_file_3_0.csv",
    "commit": "f2bd73d0a37ea7c1b486148291efd93a11ba6d52",
    "commit_date": "Mon Jan 16 10:10:14 2023"
  },
  {
    "file": "internal/geopipeline/output/crema_3_0/mission_timeline_event_file_ganymede_phase_3_0.csv",
    "commit": "f2bd73d0a37ea7c1b486148291efd93a11ba6d52",
    "commit_date": "Mon Jan 16 10:10:14 2023"
  }
]